{
 "align_labels_left": 0, 
 "creation": "2017-06-26 18:56:43.149938", 
 "css": "", 
 "custom_format": 1, 
 "disabled": 0, 
 "doc_type": "Visitor Information", 
 "docstatus": 0, 
 "doctype": "Print Format", 
 "font": "Default", 
 "html": "<style>\n    .print-format table, .print-format tr,\n    .print-format td, .print-format div, .print-format p {\n        font-family: Calibri;\n            vertical-align: left;\n            font-size: 11px;\n            line-height: 200%;\n            padding: 0.5px !important;\n    }\n    .break{\n        width: 8.5em;\n        word-wrap: break-word;\n    }\n    .breaktbl1{\n        width: 7.9em;\n        word-wrap: break-word;\n    }\n    .box{\n\tfloat:left;\n\twidth: 55%;\n\t}\n    .box1{\n\tfloat:left;\n\twidth: 45%;\n\t}\n    .image{\n        width: 0.984252in;\n        height: 0.787402in;\n       \n    }\n    @media screen {\n        .print-format {\n            padding: 0.20in;\n            min-height: 3in;\n        }\n    }\n    @media print .page-break{\n    padding:5px;\n    }\n</style>\n\n<div>\n    <div>\n    {% if doc.company %}\n    {% set vc = frappe.get_doc(\"Visitor Company\", doc.company) %}\n    <img src={{vc.company_logo}} style=\"width: 0.5in; height: 0.2in; margin-left: 290px;\" alt=\"No image\">\n    {% endif %}\n    </div>\n<div class=\"box\">\n\n    <div style=\"display:inline-block;\">\n        <table>\n            <tr>\n                <td class=\"text-left\"></td>\n                <td class=\"text-left breaktbl1\"></td>\n            </tr>\n            <tr>\n                <td class=\"text-left \">    {{ _(\"Visitor No\") }} </td>\n                <td class=\"text-left breaktbl1\"> {{ doc.visitor_no }} </td>\n            </tr>\n            <tr>\n                <td class=\"text-left \">    {{ _(\"Visitor Name\") }} </td>\n                <td class=\"text-left breaktbl1\"> {{ doc.visitor_name }} </td>\n            </tr>\n            <tr>\n                <td class=\"text-left \">    {{ _(\"Contact No\") }} </td>\n                <td class=\"text-left breaktbl1\"> {{ doc.contact_no }} </td>\n            </tr>\n            <tr>\n                <td class=\"text-left \">    {{ _(\"Department\") }} </td>\n                <td class=\"text-left breaktbl1\"> {{ doc.department }} </td>\n            </tr>\n            <tr>\n                <td class=\"text-left \">    {{ _(\"Location\") }} </td>\n                <td class=\"text-left breaktbl1\"> {{ doc.location }} </td>\n            </tr>\n            <tr>\n                <td class=\"text-left \">    {{ _(\"Laptop\") }} </td>\n                <td class=\"text-left breaktbl1\"> {{ doc.serial_number }} </td>\n            </tr>\n            <tr>\n                <td class=\"text-left \">    {{ _(\"Mobile\") }} </td>\n                <td class=\"text-left breaktbl1\"> {{ doc.mobile_information }} </td>\n            </tr>\n            <tr>\n                <td class=\"text-left \">    {{ _(\"Parking Space\") }} </td>\n                <td class=\"text-left breaktbl1\"> {{ _(\" : _________\") }} </td>\n            </tr>\n        </table>\n    </div>\n    <div style=\"display:inline-block;\">\n        <table>\n            <tr>\n                <th colspan=\"1\">\n                    <img src={{doc.visitor_image}} class=\"image\" alt=\"Smiley face\">\n                </th>\n            </tr>\n            <tr>\n                <td class=\"text-left \">    {{ _(\"Date of Visit\") }} </td>\n                <td class=\"text-left break\"> {{ doc.date_of_visit }} </td>\n            </tr>\n            <tr>\n                <td class=\"text-left \">    {{ _(\"Check in Time\") }} </td>\n                <td class=\"text-left break\"> {{ doc.check_in_time }} </td>\n            </tr>\n            <tr>\n                <td class=\"text-left \">    {{ _(\"To Visit\") }} </td>\n                <td class=\"text-left break\"> {{ doc.to_visit }} </td>\n            </tr>\n            <tr>\n                <td class=\"text-left \">    {{ _(\"Visitor Type\") }} </td>\n                <td class=\"text-left break\"> {{ doc.vistor_type }} </td>\n            </tr>\n            <tr>\n                <td class=\"text-left \">    {{ _(\"Visitor Sign. : \") }} </td>\n                <td class=\"text-left breaktbl1\"> {{ _(\"_________\") }} </td>\n            </tr>\n        </table>\n    </div>\n\n</div>\n\n\n\n<div class=\"box1\">\n    <div style=\"margin-left: 150px;\"\"><b>{{ _(\"Instructions\") }}</b></div>\n<div>\n\n    <div style=\"display:inline-block;\">\n        <table>\n            <tr>\n                <td class=\"text-left\"></td>\n                <td class=\"text-left\"></td>\n            </tr>\n            <tr>\n                <td class=\"text-left \">    {{ _(\"1. \") }} </td>\n                <td class=\"text-left\">  </td>\n            </tr>\n            <tr>\n                <td class=\"text-left \">    {{ _(\"2. \") }} </td>\n                <td class=\"text-left\">  </td>\n            </tr>\n            <tr>\n                <td class=\"text-left \">    {{ _(\"3. \") }} </td>\n                <td class=\"text-left\">  </td>\n            </tr>\n            <tr>\n                <td class=\"text-left \">    {{ _(\"4. \") }} </td>\n                <td class=\"text-left\">  </td>\n            </tr>\n            <tr>\n                <td class=\"text-left \">    {{ _(\"5. \") }} </td>\n                <td class=\"text-left\">  </td>\n            </tr>\n            <tr>\n                <td class=\"text-left \">    {{ _(\"6. \") }} </td>\n                <td class=\"text-left\">  </td>\n            </tr>\n            <tr>\n                <td class=\"text-left \">    {{ _(\"7. \") }} </td>\n                <td class=\"text-left\">  </td>\n            </tr>\n        </table>\n\n    <div>\n        <p><b>{{ _(\"In case of Emergency, call\") }}</b><br>\n        <b>{{ _(\"Wishing you a pleasant visit at \") }} {{frappe.db.get_value(\"VMS Settings\", \"VMS Settings\",\"company\")}} </b><p>\n    </div>\n   \n</div>\n   \n</div>\n\n\n\n", 
 "idx": 0, 
 "line_breaks": 0, 
 "modified": "2017-09-25 17:18:56.589927", 
 "modified_by": "Administrator", 
 "module": "VMS", 
 "name": "Visitor Information", 
 "owner": "Administrator", 
 "print_format_builder": 0, 
 "print_format_type": "Server", 
 "show_section_headings": 0, 
 "standard": "Yes"
}